<svg width="25" height="26" viewBox="0 0 25 26" fill="none" xmlns="http://www.w3.org/2000/svg">
<g clip-path="url(#clip0)">
<path d="M21.4633 9.4015H20.8838V6.50459C20.8838 6.48653 20.881 6.46834 20.8787 6.45005C20.8778 6.33502 20.8424 6.22207 20.7664 6.13257L16.1125 0.626642C16.1111 0.625228 16.1097 0.624727 16.1087 0.623222C16.081 0.591122 16.0487 0.564403 16.0145 0.541331C16.0043 0.534309 15.9941 0.528427 15.9835 0.522272C15.9539 0.505584 15.9225 0.491677 15.8901 0.4816C15.8814 0.479092 15.8735 0.47549 15.8648 0.473028C15.8295 0.464365 15.793 0.458984 15.7562 0.458984H4.31849C3.79619 0.458984 3.37193 0.898942 3.37193 1.43939V9.40122H2.79244C2.04527 9.40122 1.43945 10.0283 1.43945 10.8024V18.0892C1.43945 18.8626 2.04527 19.4904 2.79244 19.4904H3.37193V24.4786C3.37193 25.0191 3.79619 25.459 4.31849 25.459H19.9372C20.459 25.459 20.8838 25.0191 20.8838 24.4786V19.4905H21.4633C22.2103 19.4905 22.8162 18.8629 22.8162 18.0893V10.8027C22.8162 10.0284 22.2103 9.4015 21.4633 9.4015ZM4.31849 1.43939H15.2828V6.45525C15.2828 6.72623 15.4949 6.94546 15.7561 6.94546H19.9372V9.40145H4.31849V1.43939ZM15.6759 14.0476C15.6759 16.2762 14.3713 17.6271 12.453 17.6271C10.5058 17.6271 9.36664 16.1046 9.36664 14.1687C9.36664 12.1316 10.6226 10.609 12.56 10.609C14.5752 10.609 15.6759 12.1717 15.6759 14.0476ZM2.89159 17.4861V10.811C3.43678 10.72 4.14737 10.6696 4.89741 10.6696C6.14351 10.6696 6.95144 10.9016 7.58433 11.3955C8.26582 11.92 8.69444 12.7571 8.69444 13.9568C8.69444 15.2577 8.23694 16.155 7.60422 16.7096C6.91287 17.3046 5.86127 17.5868 4.57599 17.5868C3.8064 17.5868 3.26143 17.5364 2.89159 17.4861ZM19.9372 24.2129H4.31849V19.4905H19.9372V24.2129ZM20.0088 16.3469C20.4567 16.3469 20.9533 16.2455 21.2452 16.1249L21.4694 17.3248C21.1966 17.4665 20.5833 17.617 19.7851 17.617C17.5167 17.617 16.3482 16.1551 16.3482 14.2189C16.3482 11.9002 17.9449 10.609 19.9307 10.609C20.6998 10.609 21.2845 10.7703 21.5475 10.9117L21.2455 12.1316C20.9439 12.0006 20.5251 11.8794 19.9992 11.8794C18.8212 11.8794 17.9058 12.6156 17.9058 14.128C17.9056 15.4894 18.6846 16.3469 20.0088 16.3469Z" fill="#828282"/>
<path d="M7.11673 14.0077C7.12646 12.5957 6.32795 11.8496 5.05289 11.8496C4.72182 11.8496 4.50716 11.8797 4.38086 11.9102V16.3573C4.50712 16.3876 4.71192 16.3876 4.897 16.3876C6.24043 16.3975 7.11673 15.631 7.11673 14.0077Z" fill="#828282"/>
<path d="M10.9336 14.1371C10.9336 15.4686 11.5373 16.4062 12.5303 16.4062C13.5333 16.4062 14.1076 15.4177 14.1076 14.0969C14.1076 12.8764 13.543 11.8281 12.5206 11.8281C11.5182 11.8284 10.9336 12.8166 10.9336 14.1371Z" fill="#828282"/>
</g>
<defs>
<clipPath id="clip0">
<rect width="24.1379" height="25" fill="white" transform="translate(0.0585938 0.458984)"/>
</clipPath>
</defs>
</svg>
