<svg width="86" height="91" viewBox="0 0 86 91" fill="none" xmlns="http://www.w3.org/2000/svg">
<path d="M60 60.998C60 77.5666 46.5685 90.998 30 90.998C13.4315 90.998 0 77.5666 0 60.998C0 44.4295 13.4315 30.998 30 30.998C46.5685 30.998 60 44.4295 60 60.998Z" fill="#F3C8A1"/>
<path fill-rule="evenodd" clip-rule="evenodd" d="M85.2896 60.2198C83.9759 55.6691 80.7436 51.9171 76.4374 49.9445V19.9802C76.4376 19.5008 76.1844 19.0569 75.7717 18.8128L45.943 1.18681C45.5173 0.935127 44.9883 0.935127 44.5628 1.18681L14.7341 18.8128C14.7178 18.8222 14.7041 18.8342 14.6903 18.8463L14.6903 18.8463C14.6801 18.8553 14.6697 18.8644 14.6582 18.8725C14.6371 18.8872 14.6169 18.9036 14.5962 18.9203L14.5962 18.9203L14.5782 18.9349C14.4604 19.0276 14.3592 19.1394 14.2785 19.2657C14.2785 19.2711 14.2732 19.2752 14.2676 19.2795C14.2635 19.2827 14.2591 19.286 14.2568 19.2901V19.2996C14.1804 19.4374 14.1285 19.5874 14.1036 19.743C14.1036 19.7672 14.0993 19.7904 14.0949 19.8139L14.0949 19.8139C14.092 19.8298 14.089 19.8458 14.0873 19.8623C14.0856 19.8796 14.0819 19.8962 14.0782 19.9127C14.0733 19.9349 14.0684 19.9569 14.0684 19.9802V55.2323C14.0682 55.7118 14.3214 56.1556 14.7341 56.3997L44.5628 74.0257C44.5985 74.043 44.6351 74.0584 44.6726 74.0718C44.7095 74.0903 44.7477 74.1066 44.7865 74.1206C45.0849 74.2454 45.4208 74.2454 45.7193 74.1206C45.7586 74.1066 45.7971 74.0903 45.8345 74.0718C45.8396 74.0695 45.8447 74.0673 45.8498 74.0652C45.8589 74.0615 45.8681 74.058 45.8774 74.0546C45.8995 74.0463 45.9217 74.038 45.943 74.0257L54.0388 69.2409C56.53 77.8706 65.545 82.8469 74.1748 80.3557C82.8045 77.8646 87.7808 68.8494 85.2896 60.2198ZM45.2529 3.92833L52.3033 8.09486L41.8497 14.2721C41.2047 14.6533 40.9906 15.4853 41.3718 16.1303C41.7529 16.7753 42.5849 16.9894 43.23 16.6082L54.9703 9.67578L62.0207 13.8423L34.8576 29.8888L27.8072 25.7222L39.1651 19.0108C39.8102 18.6296 40.0242 17.7976 39.6431 17.1526C39.2619 16.5076 38.4299 16.2935 37.7849 16.6747L25.1416 24.1468L18.0898 19.9802L45.2529 3.92833ZM33.5017 32.2385V41.2915L26.4974 37.1521V28.0991L33.5017 32.2385ZM53.9237 60.532C53.5631 61.8997 53.3829 63.3088 53.388 64.7232C53.3883 65.2907 53.4181 65.8577 53.4775 66.4221L46.6087 70.4829V66.0791C46.6087 65.3303 46.0017 64.7232 45.2529 64.7232C44.5041 64.7232 43.897 65.3303 43.897 66.0791V70.4829L16.7801 54.4595V22.357L23.7857 26.4964V37.9249C23.7852 38.4049 24.0383 38.8494 24.4515 39.0936L34.1675 44.8357C34.3766 44.9587 34.6149 45.0238 34.8576 45.0241C35.6064 45.0241 36.2134 44.417 36.2134 43.6683V33.8397L43.897 38.3805V60.6557C43.897 61.4045 44.5041 62.0115 45.2529 62.0115C46.0017 62.0115 46.6087 61.4045 46.6087 60.6557V38.3805L71.1821 23.8593C71.8268 23.4781 72.0406 22.6465 71.6594 22.0018C71.2782 21.3571 70.4466 21.1434 69.8019 21.5245L45.2529 36.0321L37.5245 31.4643L64.6876 15.4124L73.7257 20.7531V48.9954C65.0718 46.713 56.2061 51.8779 53.9237 60.532ZM69.6582 78.2817C62.17 78.2817 56.0997 72.2114 56.0997 64.7232C56.0997 57.2351 62.17 51.1648 69.6582 51.1648C77.1463 51.1648 83.2167 57.2351 83.2167 64.7232C83.2085 72.208 77.143 78.2734 69.6582 78.2817ZM20.8476 45.7414C20.0988 45.7414 19.4918 46.3485 19.4918 47.0973V52.5206C19.4918 53.2694 20.0988 53.8765 20.8476 53.8765C21.5964 53.8765 22.2035 53.2694 22.2035 52.5206V47.0973C22.2035 46.3485 21.5964 45.7414 20.8476 45.7414ZM26.271 48.4531C25.5222 48.4531 24.9151 49.0602 24.9151 49.809V55.2323C24.9151 55.9811 25.5222 56.5882 26.271 56.5882C27.0198 56.5882 27.6268 55.9811 27.6268 55.2323V49.809C27.6268 49.0602 27.0198 48.4531 26.271 48.4531ZM73.8529 56.1472C74.2545 55.5152 75.0925 55.3283 75.7245 55.7299C78.7141 57.7457 80.5065 61.1155 80.5072 64.7213C80.5084 70.7117 75.6529 75.5689 69.6625 75.5701C63.672 75.5713 58.8148 70.7158 58.8136 64.7253C58.8124 58.7348 63.6679 53.8777 69.6584 53.8765C70.4072 53.8765 71.0142 54.4836 71.0142 55.2323C71.0142 55.9811 70.4072 56.5882 69.6584 56.5882C66.9531 56.5896 64.4253 57.9357 62.9144 60.1798C60.4051 63.9066 61.3921 68.962 65.119 71.4713C68.8457 73.9807 73.9012 72.9936 76.4105 69.2667C78.9197 65.54 77.9328 60.4846 74.2059 57.9752C73.6222 57.5558 73.4675 56.7538 73.8529 56.1472ZM72.7672 61.0529C73.2926 60.5453 74.1258 60.5453 74.6511 61.0529C75.1898 61.573 75.2047 62.4314 74.6844 62.9701L68.583 69.0714C68.0536 69.6007 67.1953 69.6007 66.6659 69.0714L64.6321 67.0376C64.1245 66.5122 64.1245 65.679 64.6321 65.1536C65.1524 64.615 66.0107 64.6001 66.5493 65.1204L67.6245 66.1956L72.7672 61.0529Z" fill="url(#paint0_linear)"/>
<defs>
<linearGradient id="paint0_linear" x1="50.0001" y1="0.998047" x2="50.0001" y2="80.9979" gradientUnits="userSpaceOnUse">
<stop stop-color="#747272"/>
<stop offset="1" stop-color="#151515"/>
</linearGradient>
</defs>
</svg>
