<svg width="16" height="17" viewBox="0 0 16 17" fill="none" xmlns="http://www.w3.org/2000/svg">
<path d="M7.29286 16.3536C7.68338 16.7441 8.31654 16.7441 8.70707 16.3536L15.071 9.98965C15.4616 9.59912 15.4616 8.96596 15.071 8.57543C14.6805 8.18491 14.0474 8.18491 13.6568 8.57543L7.99997 14.2323L2.34313 8.5754C1.9526 8.18488 1.31944 8.18488 0.928913 8.5754C0.538388 8.96592 0.538386 9.59909 0.92891 9.98961L7.29286 16.3536ZM7 0.646482L6.99996 15.6465L8.99996 15.6465L9 0.646487L7 0.646482Z" fill="#4F4F4F"/>
</svg>
