<svg width="80" height="81" viewBox="0 0 80 81" fill="none" xmlns="http://www.w3.org/2000/svg">
<g clip-path="url(#clip0)">
<path d="M65.5975 26.6702L68.9612 23.3059C70.7886 21.4791 70.7886 18.5055 68.9612 16.6775C67.1338 14.8501 64.1602 14.8501 62.3328 16.6775L58.7415 20.2688C54.9951 17.6595 50.7245 15.8535 46.25 14.9868V10.3262H49.375C50.238 10.3262 50.9375 9.62671 50.9375 8.76367V4.70117C50.9375 2.11633 48.8348 0.0136719 46.25 0.0136719H33.75C31.1652 0.0136719 29.0625 2.11633 29.0625 4.70117V8.76367C29.0625 9.62671 29.762 10.3262 30.625 10.3262H33.75V14.9868C29.2761 15.8529 25.0049 17.6595 21.2585 20.2688L17.6672 16.6775C15.8405 14.8501 12.8668 14.8501 11.0388 16.6775C9.21143 18.5049 9.21143 21.4785 11.0388 23.3059L14.4025 26.6702C9.73999 32.4777 7.1875 39.7115 7.1875 47.2012C7.1875 65.2938 21.9073 80.0137 40 80.0137C58.0927 80.0137 72.8125 65.2938 72.8125 47.2012C72.8125 39.7115 70.26 32.4777 65.5975 26.6702ZM64.5422 18.887C65.152 18.2778 66.1426 18.2784 66.7517 18.887C67.3602 19.4961 67.3602 20.4873 66.7517 21.0964L63.5229 24.3246C62.7954 23.5775 62.0325 22.8652 61.239 22.1908L64.5422 18.887ZM32.1875 4.70117C32.1875 3.83936 32.8882 3.13867 33.75 3.13867H46.25C47.1118 3.13867 47.8125 3.83936 47.8125 4.70117V7.20117H32.1875V4.70117ZM43.125 10.3262V14.5364C41.0541 14.3423 38.9465 14.3423 36.875 14.5364V10.3262H43.125ZM13.2483 18.887C13.8574 18.2784 14.8486 18.2778 15.4578 18.887L18.761 22.1908C17.9675 22.8652 17.2046 23.5775 16.4771 24.3246L13.2483 21.0964C12.6398 20.4873 12.6398 19.4961 13.2483 18.887ZM40 76.8887C23.6304 76.8887 10.3125 63.5708 10.3125 47.2012C10.3125 39.9801 12.934 33.0227 17.6935 27.6095C19.0045 26.1184 20.4675 24.7561 22.0416 23.5586C25.9863 20.5569 30.6555 18.5812 35.5444 17.8445C37.0074 17.6254 38.5065 17.5137 40 17.5137C41.4935 17.5137 42.9926 17.6254 44.455 17.8445C49.3445 18.5812 54.0137 20.5569 57.959 23.5586C59.5325 24.7561 60.9955 26.1184 62.3065 27.6095C67.066 33.0227 69.6875 39.9801 69.6875 47.2012C69.6875 63.5708 56.3696 76.8887 40 76.8887Z" fill="url(#paint0_linear)"/>
<path d="M40 51.8887C42.5848 51.8887 44.6875 49.786 44.6875 47.2012C44.6875 45.1644 43.3813 43.4274 41.5625 42.7822V31.5762C41.5625 30.7131 40.863 30.0137 40 30.0137C39.137 30.0137 38.4375 30.7131 38.4375 31.5762V42.7822C36.6187 43.4274 35.3125 45.1644 35.3125 47.2012C35.3125 49.786 37.4152 51.8887 40 51.8887ZM40 45.6387C40.8618 45.6387 41.5625 46.3394 41.5625 47.2012C41.5625 48.063 40.8618 48.7637 40 48.7637C39.1382 48.7637 38.4375 48.063 38.4375 47.2012C38.4375 46.3394 39.1382 45.6387 40 45.6387Z" fill="url(#paint1_linear)"/>
<path d="M56.6449 30.7171C56.6205 30.6884 56.5961 30.6598 56.5686 30.6329C56.5393 30.603 56.5082 30.5761 56.4771 30.5493C53.7231 27.8247 50.321 25.8087 46.629 24.7186C45.8008 24.4745 44.9323 24.9469 44.6881 25.7745C44.444 26.6021 44.9164 27.4713 45.744 27.7154C48.4796 28.5235 51.0315 29.92 53.2068 31.7846L52.1527 32.8387C51.543 33.4491 51.543 34.4384 52.1527 35.0488C52.4579 35.354 52.8577 35.5066 53.2581 35.5066C53.6578 35.5066 54.0576 35.354 54.3628 35.0488L55.4193 33.9923C58.2465 37.2796 59.9255 41.3263 60.2527 45.639H58.75C57.887 45.639 57.1875 46.3391 57.1875 47.2015C57.1875 48.0645 57.887 48.764 58.75 48.764H60.2527C59.9255 53.0774 58.2465 57.1234 55.4193 60.4107L54.3628 59.3542C53.7524 58.7445 52.7631 58.7445 52.1527 59.3542C51.5424 59.9646 51.5424 60.9539 52.1527 61.5643L53.2092 62.6208C49.9219 65.448 45.8752 67.127 41.5625 67.4548V65.9515C41.5625 65.0885 40.863 64.389 40 64.389C39.137 64.389 38.4375 65.0885 38.4375 65.9515V67.4542C34.1248 67.127 30.0781 65.448 26.7908 62.6208L27.8473 61.5643C28.4576 60.9539 28.4576 59.9646 27.8473 59.3542C27.2369 58.7445 26.2476 58.7445 25.6372 59.3542L24.5807 60.4107C21.7535 57.1234 20.0745 53.0767 19.7473 48.764H21.25C22.113 48.764 22.8125 48.0645 22.8125 47.2015C22.8125 46.3385 22.113 45.639 21.25 45.639H19.7473C20.0745 41.3263 21.7535 37.2796 24.5807 33.9923L25.6372 35.0488C25.9424 35.354 26.3422 35.5066 26.7419 35.5066C27.1423 35.5066 27.5421 35.354 27.8473 35.0488C28.457 34.4384 28.457 33.4491 27.8473 32.8387L26.7932 31.7846C28.9685 29.9194 31.5204 28.5235 34.256 27.7154C35.0836 27.4713 35.556 26.6021 35.3119 25.7745C35.0677 24.9469 34.1998 24.4751 33.371 24.7186C29.6796 25.8081 26.2787 27.8235 23.5254 30.5468C23.493 30.5743 23.4613 30.6024 23.4314 30.6323C23.4045 30.6591 23.3807 30.6872 23.3563 30.7153C18.9746 35.1379 16.5625 40.9875 16.5625 47.2015C16.5625 53.4149 18.9746 59.2639 23.3551 63.6859C23.3795 63.7146 23.4039 63.7432 23.4314 63.7701C23.4583 63.7976 23.4863 63.8214 23.5144 63.8458C27.937 68.2269 33.786 70.639 40 70.639C46.2134 70.639 52.0624 68.2275 56.4844 63.847C56.5131 63.822 56.5417 63.7976 56.5686 63.7701C56.5955 63.7439 56.6193 63.7152 56.6437 63.6877C61.0254 59.2651 63.4375 53.4155 63.4375 47.2015C63.4375 40.9881 61.0254 35.1391 56.6449 30.7171Z" fill="url(#paint2_linear)"/>
<path d="M40 26.8887C40.8624 26.8887 41.5625 26.1886 41.5625 25.3262C41.5625 24.4637 40.8624 23.7637 40 23.7637C39.1376 23.7637 38.4375 24.4637 38.4375 25.3262C38.4375 26.1886 39.1376 26.8887 40 26.8887Z" fill="url(#paint3_linear)"/>
</g>
<defs>
<linearGradient id="paint0_linear" x1="40" y1="0.0136719" x2="40" y2="80.0137" gradientUnits="userSpaceOnUse">
<stop stop-color="#FFB069"/>
<stop offset="1" stop-color="#F2994A"/>
</linearGradient>
<linearGradient id="paint1_linear" x1="40" y1="30.0137" x2="40" y2="51.8887" gradientUnits="userSpaceOnUse">
<stop stop-color="#FFB069"/>
<stop offset="1" stop-color="#F2994A"/>
</linearGradient>
<linearGradient id="paint2_linear" x1="40" y1="24.6543" x2="40" y2="70.639" gradientUnits="userSpaceOnUse">
<stop stop-color="#FFB069"/>
<stop offset="1" stop-color="#F2994A"/>
</linearGradient>
<linearGradient id="paint3_linear" x1="40" y1="23.7637" x2="40" y2="26.8887" gradientUnits="userSpaceOnUse">
<stop stop-color="#FFB069"/>
<stop offset="1" stop-color="#F2994A"/>
</linearGradient>
<clipPath id="clip0">
<rect width="80" height="80" fill="white" transform="translate(0 0.0136719)"/>
</clipPath>
</defs>
</svg>
