<svg width="80" height="81" viewBox="0 0 80 81" fill="none" xmlns="http://www.w3.org/2000/svg">
<path d="M71.152 10.3454C70.0399 7.99857 68.2835 6.01625 66.0877 4.62961C63.8918 3.24296 61.347 2.50913 58.75 2.51369H56.25C52.6045 2.51783 49.1096 3.96781 46.5318 6.54554C43.9541 9.12327 42.5041 12.6182 42.5 16.2637V19.4363C41.5468 19.9864 40.8019 20.8357 40.3807 21.8524C39.9595 22.8691 39.8856 23.9964 40.1705 25.0594C40.4554 26.1224 41.0832 27.0616 41.9564 27.7314C42.8296 28.4012 43.8995 28.764 45 28.7637H45.25C45.5985 30.4985 46.3143 32.1387 47.3492 33.574C48.3841 35.0093 49.7141 36.2065 51.25 37.0853V42.5137H45C43.1539 42.5125 41.3727 43.1949 40 44.4295V30.0137C39.9985 28.6881 39.4712 27.4172 38.5339 26.4798C37.5965 25.5424 36.3256 25.0152 35 25.0137H25V3.76369C25 3.55062 24.9455 3.34109 24.8418 3.15499C24.738 2.96889 24.5884 2.81241 24.4071 2.7004C24.2259 2.58839 24.019 2.52457 23.8061 2.515C23.5933 2.50543 23.3815 2.55043 23.1909 2.64572L21.25 3.61619L19.3091 2.64572C19.1355 2.55892 18.9441 2.51374 18.75 2.51374C18.5559 2.51374 18.3645 2.55892 18.1909 2.64572L16.25 3.61619L14.3091 2.64572C14.1355 2.55892 13.9441 2.51374 13.75 2.51374C13.5559 2.51374 13.3645 2.55892 13.1909 2.64572L11.25 3.61619L9.30906 2.64572C9.11849 2.55043 8.90672 2.50543 8.69386 2.515C8.48101 2.52457 8.27413 2.58839 8.09288 2.7004C7.91162 2.81241 7.76201 2.96889 7.65824 3.15499C7.55448 3.34109 7.50001 3.55062 7.5 3.76369V25.0137C6.17437 25.0152 4.90347 25.5424 3.96611 26.4798C3.02875 27.4172 2.50149 28.6881 2.5 30.0137V72.5137C2.50149 73.8393 3.02875 75.1102 3.96611 76.0476C4.90347 76.9849 6.17437 77.5122 7.5 77.5137H35C35.8781 77.5144 36.7408 77.2823 37.5 76.841V77.5137H40V50.0137C40.0015 48.6881 40.5288 47.4172 41.4661 46.4798C42.4035 45.5424 43.6744 45.0152 45 45.0137H47.5L45.25 48.0137C45.1402 48.1602 45.0638 48.329 45.0264 48.5082C44.989 48.6874 44.9914 48.8727 45.0335 49.0508C45.0755 49.229 45.1562 49.3958 45.2698 49.5394C45.3834 49.6829 45.5272 49.7998 45.6909 49.8817L49.1406 51.606L47.8669 52.8798C47.7385 53.0082 47.6396 53.1629 47.5771 53.3334C47.5146 53.5038 47.49 53.6859 47.505 53.8668C47.52 54.0477 47.5742 54.2232 47.6638 54.3811C47.7535 54.5389 47.8765 54.6754 48.0242 54.7809L56.25 60.657V77.5137H58.75V60.657L66.9766 54.7809C67.1243 54.6754 67.2473 54.5389 67.3369 54.3811C67.4266 54.2232 67.4808 54.0477 67.4958 53.8668C67.5108 53.6859 67.4861 53.5038 67.4236 53.3334C67.3612 53.1629 67.2623 53.0082 67.1339 52.8798L65.8602 51.606L69.3091 49.8817C69.4728 49.7998 69.6166 49.6829 69.7302 49.5394C69.8438 49.3958 69.9245 49.229 69.9665 49.0508C70.0086 48.8727 70.011 48.6874 69.9736 48.5082C69.9362 48.329 69.8598 48.1602 69.75 48.0137L67.5 45.0137H70C71.3256 45.0152 72.5965 45.5424 73.5339 46.4798C74.4712 47.4172 74.9985 48.6881 75 50.0137V77.5137H77.5V50.0137C77.4977 48.0253 76.7068 46.1189 75.3008 44.7129C73.8948 43.3069 71.9884 42.516 70 42.5137H63.75V37.0851C65.4826 36.0913 66.9509 34.6957 68.0312 33.0157C68.6487 34.6995 69.7677 36.1534 71.2373 37.1813C72.707 38.2091 74.4566 38.7614 76.25 38.7637C76.5815 38.7637 76.8995 38.632 77.1339 38.3976C77.3683 38.1632 77.5 37.8452 77.5 37.5137V18.7637C77.4956 16.8625 76.8744 15.014 75.7297 13.496C74.5851 11.9781 72.9787 10.8725 71.152 10.3454ZM10 5.78619L10.6909 6.13166C10.8645 6.21846 11.0559 6.26365 11.25 6.26365C11.4441 6.26365 11.6355 6.21846 11.8091 6.13166L13.75 5.16119L15.6909 6.13166C15.8645 6.21846 16.0559 6.26365 16.25 6.26365C16.4441 6.26365 16.6355 6.21846 16.8091 6.13166L18.75 5.16119L20.6909 6.13166C20.8645 6.21846 21.0559 6.26365 21.25 6.26365C21.4441 6.26365 21.6355 6.21846 21.8091 6.13166L22.5 5.78619V25.0137H10V5.78619ZM37.5 50.0137V72.5137C37.4992 73.1765 37.2356 73.8119 36.7669 74.2806C36.2982 74.7493 35.6628 75.0129 35 75.0137H7.5C6.8372 75.0129 6.20177 74.7493 5.7331 74.2806C5.26443 73.8119 5.00079 73.1765 5 72.5137V30.0137C5.00079 29.3509 5.26443 28.7155 5.7331 28.2468C6.20177 27.7781 6.8372 27.5145 7.5 27.5137H35C35.6628 27.5145 36.2982 27.7781 36.7669 28.2468C37.2356 28.7155 37.4992 29.3509 37.5 30.0137V50.0137ZM72.5 23.7637C72.4992 24.4265 72.2356 25.0619 71.7669 25.5306C71.2982 25.9993 70.6628 26.2629 70 26.2637V21.2637C70.6628 21.2645 71.2982 21.5281 71.7669 21.9968C72.2356 22.4655 72.4992 23.1009 72.5 23.7637ZM45 26.2637C44.337 26.2637 43.7011 26.0003 43.2322 25.5315C42.7634 25.0626 42.5 24.4267 42.5 23.7637C42.5 23.1007 42.7634 22.4648 43.2322 21.9959C43.7011 21.5271 44.337 21.2637 45 21.2637V26.2637ZM48.1486 48.3154L49.7423 46.1904L51.4961 49.9903L48.1486 48.3154ZM50.6772 53.6042L52.1339 52.1476C52.222 52.0595 52.2964 51.9587 52.3547 51.8485L54.3886 56.2548L50.6772 53.6042ZM57.5 57.0307L51.9114 44.9213C52.4389 44.7762 52.9044 44.4622 53.2364 44.0274C53.5685 43.5925 53.7489 43.0608 53.75 42.5137V38.1856C56.1906 38.9563 58.8094 38.9563 61.25 38.1856V42.5137C61.251 43.0609 61.4313 43.5928 61.7634 44.0277C62.0955 44.4627 62.561 44.7768 63.0886 44.922L57.5 57.0307ZM60.6114 56.2551L62.6453 51.8488C62.7036 51.959 62.778 52.0598 62.8661 52.1479L64.3228 53.6045L60.6114 56.2551ZM65.257 46.1896L66.8508 48.3146L63.5027 49.9887L65.257 46.1896ZM67.5 26.2637C67.5 28.9159 66.4464 31.4594 64.5711 33.3348C62.6957 35.2101 60.1522 36.2637 57.5 36.2637C54.8478 36.2637 52.3043 35.2101 50.4289 33.3348C48.5536 31.4594 47.5 28.9159 47.5 26.2637V21.2615C48.4041 21.2563 49.2798 21.2417 50.1295 21.2089C50.0136 21.5044 49.9747 21.8246 50.0164 22.1394C50.058 22.4541 50.1789 22.7532 50.3678 23.0084C50.5566 23.2637 50.8071 23.4668 51.0959 23.5987C51.3847 23.7307 51.7023 23.7871 52.0188 23.7628C52.3354 23.7385 52.6406 23.6341 52.9058 23.4596C53.1711 23.2851 53.3876 23.046 53.5352 22.7649C53.6828 22.4838 53.7566 22.1698 53.7497 21.8524C53.7428 21.535 53.6553 21.2245 53.4956 20.9501C57.035 20.5074 60.1423 19.4632 63.105 17.0438L64.7925 15.6629L67.5 20.349V26.2637ZM66.2197 13.1387C66.129 12.9818 66.0053 12.8465 65.8572 12.7422C65.709 12.6379 65.5399 12.567 65.3617 12.5345C65.1834 12.502 65.0002 12.5086 64.8248 12.5539C64.6493 12.5993 64.4858 12.6822 64.3456 12.797L61.5216 15.1074C57.3438 18.5212 52.5625 18.7756 46.25 18.7637H45V16.2637C45.0033 13.281 46.1897 10.4215 48.2988 8.31244C50.4078 6.20338 53.2673 5.01704 56.25 5.01369H58.75C60.9652 5.00997 63.1318 5.66265 64.9763 6.88934C66.8208 8.11604 68.2605 9.86174 69.1136 11.906C69.7027 13.2831 70.0043 14.7659 70 16.2637V18.7637H69.4713L66.2197 13.1387ZM75 23.7637V36.1387C73.5892 35.8486 72.3216 35.081 71.4109 33.9653C70.5001 32.8496 70.0018 31.454 70 30.0137V28.7637C71.1005 28.764 72.1704 28.4012 73.0436 27.7314C73.9168 27.0616 74.5446 26.1224 74.8295 25.0594C75.1144 23.9964 75.0405 22.8691 74.6193 21.8524C74.1981 20.8357 73.4532 19.9864 72.5 19.4363V16.2637C72.5005 15.3622 72.412 14.4628 72.2359 13.5787C73.0842 14.1524 73.7795 14.9246 74.2612 15.8283C74.743 16.7319 74.9966 17.7396 75 18.7637V23.7637Z" fill="url(#paint0_linear)"/>
<path d="M44.9679 56.709C41.6867 60.6038 41.6809 66.3184 44.8987 70.4635L45 77.5323L47.5 77.4963L47.3925 69.9963C47.3884 69.7084 47.285 69.4307 47.0997 69.2102C44.3809 65.9759 44.2892 61.3951 46.8801 58.3196L44.9679 56.709Z" fill="url(#paint1_linear)"/>
<path d="M67.5 70.0143V77.5143H70V70.4554C73.2117 66.3115 73.2031 60.6015 69.9244 56.709L68.0125 58.3196C70.6034 61.3951 70.5111 65.9759 67.7937 69.2102C67.6043 69.4353 67.5002 69.7201 67.5 70.0143Z" fill="url(#paint2_linear)"/>
<path d="M63.125 20.0137C62.7542 20.0137 62.3916 20.1236 62.0833 20.3297C61.775 20.5357 61.5346 20.8285 61.3927 21.1711C61.2508 21.5138 61.2137 21.8908 61.286 22.2545C61.3584 22.6182 61.5369 22.9523 61.7992 23.2145C62.0614 23.4767 62.3955 23.6553 62.7592 23.7276C63.1229 23.8 63.4999 23.7629 63.8425 23.6209C64.1851 23.479 64.478 23.2387 64.684 22.9304C64.89 22.622 65 22.2595 65 21.8887C64.9995 21.3916 64.8017 20.915 64.4502 20.5634C64.0987 20.2119 63.6221 20.0142 63.125 20.0137Z" fill="url(#paint3_linear)"/>
<path d="M57.5 28.7637C57.1686 28.7633 56.8509 28.6315 56.6165 28.3971C56.3822 28.1628 56.2504 27.8451 56.25 27.5137H53.75C53.75 28.5082 54.1451 29.4621 54.8484 30.1653C55.5516 30.8686 56.5054 31.2637 57.5 31.2637C58.4946 31.2637 59.4484 30.8686 60.1516 30.1653C60.8549 29.4621 61.25 28.5082 61.25 27.5137H58.75C58.7496 27.8451 58.6178 28.1628 58.3835 28.3971C58.1491 28.6315 57.8314 28.7633 57.5 28.7637Z" fill="url(#paint4_linear)"/>
<path d="M51.25 62.5137H53.75V65.0137H51.25V62.5137Z" fill="url(#paint5_linear)"/>
<path d="M51.25 70.0137H53.75V72.5137H51.25V70.0137Z" fill="url(#paint6_linear)"/>
<path d="M13.75 45.0137H8.75C8.41848 45.0137 8.10054 45.1454 7.86612 45.3798C7.6317 45.6142 7.5 45.9322 7.5 46.2637V51.2637C7.5 51.5952 7.6317 51.9131 7.86612 52.1476C8.10054 52.382 8.41848 52.5137 8.75 52.5137H13.75C14.0815 52.5137 14.3995 52.382 14.6339 52.1476C14.8683 51.9131 15 51.5952 15 51.2637V46.2637C15 45.9322 14.8683 45.6142 14.6339 45.3798C14.3995 45.1454 14.0815 45.0137 13.75 45.0137ZM12.5 50.0137H10V47.5137H12.5V50.0137Z" fill="url(#paint7_linear)"/>
<path d="M23.75 45.0137H18.75C18.4185 45.0137 18.1005 45.1454 17.8661 45.3798C17.6317 45.6142 17.5 45.9322 17.5 46.2637V51.2637C17.5 51.5952 17.6317 51.9131 17.8661 52.1476C18.1005 52.382 18.4185 52.5137 18.75 52.5137H23.75C24.0815 52.5137 24.3995 52.382 24.6339 52.1476C24.8683 51.9131 25 51.5952 25 51.2637V46.2637C25 45.9322 24.8683 45.6142 24.6339 45.3798C24.3995 45.1454 24.0815 45.0137 23.75 45.0137ZM22.5 50.0137H20V47.5137H22.5V50.0137Z" fill="url(#paint8_linear)"/>
<path d="M33.75 45.0137H28.75C28.4185 45.0137 28.1005 45.1454 27.8661 45.3798C27.6317 45.6142 27.5 45.9322 27.5 46.2637V51.2637C27.5 51.5952 27.6317 51.9131 27.8661 52.1476C28.1005 52.382 28.4185 52.5137 28.75 52.5137H33.75C34.0815 52.5137 34.3995 52.382 34.6339 52.1476C34.8683 51.9131 35 51.5952 35 51.2637V46.2637C35 45.9322 34.8683 45.6142 34.6339 45.3798C34.3995 45.1454 34.0815 45.0137 33.75 45.0137ZM32.5 50.0137H30V47.5137H32.5V50.0137Z" fill="url(#paint9_linear)"/>
<path d="M13.75 55.0137H8.75C8.41848 55.0137 8.10054 55.1454 7.86612 55.3798C7.6317 55.6142 7.5 55.9322 7.5 56.2637V61.2637C7.5 61.5952 7.6317 61.9131 7.86612 62.1476C8.10054 62.382 8.41848 62.5137 8.75 62.5137H13.75C14.0815 62.5137 14.3995 62.382 14.6339 62.1476C14.8683 61.9131 15 61.5952 15 61.2637V56.2637C15 55.9322 14.8683 55.6142 14.6339 55.3798C14.3995 55.1454 14.0815 55.0137 13.75 55.0137ZM12.5 60.0137H10V57.5137H12.5V60.0137Z" fill="url(#paint10_linear)"/>
<path d="M23.75 55.0137H18.75C18.4185 55.0137 18.1005 55.1454 17.8661 55.3798C17.6317 55.6142 17.5 55.9322 17.5 56.2637V61.2637C17.5 61.5952 17.6317 61.9131 17.8661 62.1476C18.1005 62.382 18.4185 62.5137 18.75 62.5137H23.75C24.0815 62.5137 24.3995 62.382 24.6339 62.1476C24.8683 61.9131 25 61.5952 25 61.2637V56.2637C25 55.9322 24.8683 55.6142 24.6339 55.3798C24.3995 55.1454 24.0815 55.0137 23.75 55.0137ZM22.5 60.0137H20V57.5137H22.5V60.0137Z" fill="url(#paint11_linear)"/>
<path d="M33.75 55.0137H28.75C28.4185 55.0137 28.1005 55.1454 27.8661 55.3798C27.6317 55.6142 27.5 55.9322 27.5 56.2637V71.2637C27.5 71.5952 27.6317 71.9131 27.8661 72.1476C28.1005 72.382 28.4185 72.5137 28.75 72.5137H33.75C34.0815 72.5137 34.3995 72.382 34.6339 72.1476C34.8683 71.9131 35 71.5952 35 71.2637V56.2637C35 55.9322 34.8683 55.6142 34.6339 55.3798C34.3995 55.1454 34.0815 55.0137 33.75 55.0137ZM32.5 70.0137H30V57.5137H32.5V70.0137Z" fill="url(#paint12_linear)"/>
<path d="M13.75 65.0137H8.75C8.41848 65.0137 8.10054 65.1454 7.86612 65.3798C7.6317 65.6142 7.5 65.9322 7.5 66.2637V71.2637C7.5 71.5952 7.6317 71.9131 7.86612 72.1476C8.10054 72.382 8.41848 72.5137 8.75 72.5137H13.75C14.0815 72.5137 14.3995 72.382 14.6339 72.1476C14.8683 71.9131 15 71.5952 15 71.2637V66.2637C15 65.9322 14.8683 65.6142 14.6339 65.3798C14.3995 65.1454 14.0815 65.0137 13.75 65.0137ZM12.5 70.0137H10V67.5137H12.5V70.0137Z" fill="url(#paint13_linear)"/>
<path d="M23.75 65.0137H18.75C18.4185 65.0137 18.1005 65.1454 17.8661 65.3798C17.6317 65.6142 17.5 65.9322 17.5 66.2637V71.2637C17.5 71.5952 17.6317 71.9131 17.8661 72.1476C18.1005 72.382 18.4185 72.5137 18.75 72.5137H23.75C24.0815 72.5137 24.3995 72.382 24.6339 72.1476C24.8683 71.9131 25 71.5952 25 71.2637V66.2637C25 65.9322 24.8683 65.6142 24.6339 65.3798C24.3995 65.1454 24.0815 65.0137 23.75 65.0137ZM22.5 70.0137H20V67.5137H22.5V70.0137Z" fill="url(#paint14_linear)"/>
<path d="M33.75 30.0137H8.75C8.41848 30.0137 8.10054 30.1454 7.86612 30.3798C7.6317 30.6142 7.5 30.9322 7.5 31.2637V41.2637C7.5 41.5952 7.6317 41.9131 7.86612 42.1476C8.10054 42.382 8.41848 42.5137 8.75 42.5137H33.75C34.0815 42.5137 34.3995 42.382 34.6339 42.1476C34.8683 41.9131 35 41.5952 35 41.2637V31.2637C35 30.9322 34.8683 30.6142 34.6339 30.3798C34.3995 30.1454 34.0815 30.0137 33.75 30.0137ZM32.5 40.0137H10V32.5137H32.5V40.0137Z" fill="url(#paint15_linear)"/>
<path d="M27.5 35.0137H30V37.5137H27.5V35.0137Z" fill="url(#paint16_linear)"/>
<path d="M22.5 35.0137H25V37.5137H22.5V35.0137Z" fill="url(#paint17_linear)"/>
<path d="M17.5 35.0137H20V37.5137H17.5V35.0137Z" fill="url(#paint18_linear)"/>
<path d="M12.5 20.0137H20V22.5137H12.5V20.0137Z" fill="url(#paint19_linear)"/>
<path d="M12.5 15.0137H20V17.5137H12.5V15.0137Z" fill="url(#paint20_linear)"/>
<path d="M12.5 10.0137H20V12.5137H12.5V10.0137Z" fill="url(#paint21_linear)"/>
<defs>
<linearGradient id="paint0_linear" x1="40" y1="2.51367" x2="40" y2="77.5137" gradientUnits="userSpaceOnUse">
<stop stop-color="#FFB069"/>
<stop offset="1" stop-color="#F2994A"/>
</linearGradient>
<linearGradient id="paint1_linear" x1="44.998" y1="56.709" x2="44.998" y2="77.5323" gradientUnits="userSpaceOnUse">
<stop stop-color="#FFB069"/>
<stop offset="1" stop-color="#F2994A"/>
</linearGradient>
<linearGradient id="paint2_linear" x1="69.9481" y1="56.709" x2="69.9481" y2="77.5143" gradientUnits="userSpaceOnUse">
<stop stop-color="#FFB069"/>
<stop offset="1" stop-color="#F2994A"/>
</linearGradient>
<linearGradient id="paint3_linear" x1="63.125" y1="20.0137" x2="63.125" y2="23.7637" gradientUnits="userSpaceOnUse">
<stop stop-color="#FFB069"/>
<stop offset="1" stop-color="#F2994A"/>
</linearGradient>
<linearGradient id="paint4_linear" x1="57.5" y1="27.5137" x2="57.5" y2="31.2637" gradientUnits="userSpaceOnUse">
<stop stop-color="#FFB069"/>
<stop offset="1" stop-color="#F2994A"/>
</linearGradient>
<linearGradient id="paint5_linear" x1="52.5" y1="62.5137" x2="52.5" y2="65.0137" gradientUnits="userSpaceOnUse">
<stop stop-color="#FFB069"/>
<stop offset="1" stop-color="#F2994A"/>
</linearGradient>
<linearGradient id="paint6_linear" x1="52.5" y1="70.0137" x2="52.5" y2="72.5137" gradientUnits="userSpaceOnUse">
<stop stop-color="#FFB069"/>
<stop offset="1" stop-color="#F2994A"/>
</linearGradient>
<linearGradient id="paint7_linear" x1="11.25" y1="45.0137" x2="11.25" y2="52.5137" gradientUnits="userSpaceOnUse">
<stop stop-color="#FFB069"/>
<stop offset="1" stop-color="#F2994A"/>
</linearGradient>
<linearGradient id="paint8_linear" x1="21.25" y1="45.0137" x2="21.25" y2="52.5137" gradientUnits="userSpaceOnUse">
<stop stop-color="#FFB069"/>
<stop offset="1" stop-color="#F2994A"/>
</linearGradient>
<linearGradient id="paint9_linear" x1="31.25" y1="45.0137" x2="31.25" y2="52.5137" gradientUnits="userSpaceOnUse">
<stop stop-color="#FFB069"/>
<stop offset="1" stop-color="#F2994A"/>
</linearGradient>
<linearGradient id="paint10_linear" x1="11.25" y1="55.0137" x2="11.25" y2="62.5137" gradientUnits="userSpaceOnUse">
<stop stop-color="#FFB069"/>
<stop offset="1" stop-color="#F2994A"/>
</linearGradient>
<linearGradient id="paint11_linear" x1="21.25" y1="55.0137" x2="21.25" y2="62.5137" gradientUnits="userSpaceOnUse">
<stop stop-color="#FFB069"/>
<stop offset="1" stop-color="#F2994A"/>
</linearGradient>
<linearGradient id="paint12_linear" x1="31.25" y1="55.0137" x2="31.25" y2="72.5137" gradientUnits="userSpaceOnUse">
<stop stop-color="#FFB069"/>
<stop offset="1" stop-color="#F2994A"/>
</linearGradient>
<linearGradient id="paint13_linear" x1="11.25" y1="65.0137" x2="11.25" y2="72.5137" gradientUnits="userSpaceOnUse">
<stop stop-color="#FFB069"/>
<stop offset="1" stop-color="#F2994A"/>
</linearGradient>
<linearGradient id="paint14_linear" x1="21.25" y1="65.0137" x2="21.25" y2="72.5137" gradientUnits="userSpaceOnUse">
<stop stop-color="#FFB069"/>
<stop offset="1" stop-color="#F2994A"/>
</linearGradient>
<linearGradient id="paint15_linear" x1="21.25" y1="30.0137" x2="21.25" y2="42.5137" gradientUnits="userSpaceOnUse">
<stop stop-color="#FFB069"/>
<stop offset="1" stop-color="#F2994A"/>
</linearGradient>
<linearGradient id="paint16_linear" x1="28.75" y1="35.0137" x2="28.75" y2="37.5137" gradientUnits="userSpaceOnUse">
<stop stop-color="#FFB069"/>
<stop offset="1" stop-color="#F2994A"/>
</linearGradient>
<linearGradient id="paint17_linear" x1="23.75" y1="35.0137" x2="23.75" y2="37.5137" gradientUnits="userSpaceOnUse">
<stop stop-color="#FFB069"/>
<stop offset="1" stop-color="#F2994A"/>
</linearGradient>
<linearGradient id="paint18_linear" x1="18.75" y1="35.0137" x2="18.75" y2="37.5137" gradientUnits="userSpaceOnUse">
<stop stop-color="#FFB069"/>
<stop offset="1" stop-color="#F2994A"/>
</linearGradient>
<linearGradient id="paint19_linear" x1="16.25" y1="20.0137" x2="16.25" y2="22.5137" gradientUnits="userSpaceOnUse">
<stop stop-color="#FFB069"/>
<stop offset="1" stop-color="#F2994A"/>
</linearGradient>
<linearGradient id="paint20_linear" x1="16.25" y1="15.0137" x2="16.25" y2="17.5137" gradientUnits="userSpaceOnUse">
<stop stop-color="#FFB069"/>
<stop offset="1" stop-color="#F2994A"/>
</linearGradient>
<linearGradient id="paint21_linear" x1="16.25" y1="10.0137" x2="16.25" y2="12.5137" gradientUnits="userSpaceOnUse">
<stop stop-color="#FFB069"/>
<stop offset="1" stop-color="#F2994A"/>
</linearGradient>
</defs>
</svg>
